^C:\USERS\MUHAMMAD SAAD\SOURCE\REPOS\TASK 2\TASK 2\X64\DEBUG\SOURCE.OBJ
C:\USERS\MUHAMMAD SAAD\SOURCE\REPOS\TASK 2\X64\DEBUG\TASK 2.EXE
C:\USERS\MUHAMMAD SAAD\SOURCE\REPOS\TASK 2\X64\DEBUG\TASK 2.ILK
C:\USERS\MUHAMMAD SAAD\SOURCE\REPOS\TASK 2\X64\DEBUG\TASK 2.PDB
